<svg width="18" height="18" viewBox="0 0 18 18" fill="none" xmlns="http://www.w3.org/2000/svg">
<path opacity="0.5" d="M2 4.14678V4.52384C2.00014 6.23524 2.00114 17.974 2.00114 17.974C2.1024 17.9842 5.83662 18.0069 7.62485 17.9896C7.81026 17.9878 8.06139 17.892 8.16486 17.7537C8.38054 17.4655 8.18298 17.2454 7.93376 17.0536C6.9069 16.2635 6.97924 14.759 8.06814 14.1122C8.88793 13.6251 9.91109 13.8341 10.4661 14.6022C11.0132 15.3594 10.8694 16.4042 10.1351 17.0055C10.0441 17.0801 9.93795 17.1418 9.86384 17.23C9.63935 17.497 9.77444 17.8927 10.115 17.9836C10.171 17.9985 10.2323 17.9989 10.2912 17.9989C12.0677 17.9999 13.8442 17.9999 15.6207 18H15.9975V17.6566C15.9975 15.9335 15.9953 14.2103 15.9997 12.4872C16.0004 12.2136 15.9761 11.9609 15.6767 11.8504C15.3692 11.7369 15.1995 11.9294 15.0297 12.1447C14.3559 12.9987 13.1546 13.095 12.3666 12.3658C11.6118 11.6674 11.6204 10.4567 12.3853 9.76811C13.174 9.058 14.3595 9.1564 15.0217 9.99536C15.191 10.2098 15.3593 10.4074 15.6663 10.3026C15.9671 10.2 16.0008 9.94985 16 9.67323C15.995 7.93841 15.9975 6.20352 15.9975 4.46863V4.14692H15.5967C13.8675 4.14692 12.1384 4.14439 10.4093 4.14952C10.129 4.15036 9.87876 4.11583 9.77735 3.81585C9.68056 3.52952 9.85666 3.36338 10.067 3.20239C10.9409 2.5335 11.0484 1.36179 10.3166 0.571428C9.61632 -0.184956 8.39383 -0.191357 7.6925 0.557713C6.95651 1.34399 7.05436 2.52175 7.92055 3.19317C8.12791 3.35396 8.31615 3.51503 8.22541 3.80235C8.12478 4.12075 7.8595 4.15072 7.56715 4.14973C5.83804 4.14396 4.10887 4.14685 2.37976 4.14678H2Z" fill="white"/>
</svg>
